{
  "AppSyncApiName": "topperenterprise",
  "DynamoDBBillingMode": "PAY_PER_REQUEST",
  "DynamoDBEnableServerSideEncryption": false,
  "AuthCognitoUserPoolId": {
    "Fn::GetAtt": [
      "authtopperenterprise7e028f52",
      "Outputs.UserPoolId"
    ]
  }
}